IS415-GAA - Take-Home Exercise 3: Prototyping Modules for Geospatial Analytics Shiny Application
…
Now, we separate East Malaysia, only filtering “sabah” and “sarawak” regions. We will select only the necessary columns: ADM1_EN, ADM2_EN, geometry.

msia_sf_east <- msia_sf %>%
  filter(state %in% c("sabah", "sarawak"), 
         category == "assault") %>%
  filter(type != "all")

msia_sf_east

# A tibble: 2,800 × 6
   state district category type           date       crimes
   <chr> <chr>    <chr>    <chr>          <date>      <dbl>
 1 sabah all      assault  causing_injury 2016-01-01    213
 2 sabah all      assault  causing_injury 2017-01-01    230
 3 sabah all      assault  causing_injury 2018-01-01    216
 4 sabah all      assault  causing_injury 2019-01-01    221
 5 sabah all      assault  causing_injury 2020-01-01    176
 6 sabah all      assault  causing_injury 2021-01-01    148
 7 sabah all      assault  causing_injury 2022-01-01    169
 8 sabah all      assault  causing_injury 2023-01-01    176
 9 sabah all      assault  murder         2016-01-01     60
10 sabah all      assault  murder         2017-01-01     36
# ℹ 2,790 more rows
…
  # Create new entries for "matu" and "daro"
  new_entries <- bind_rows(
    mutate(matu_daro_data[1:midpoint, ], district = "matu", crimes = average_crime), # First half for "matu"
    mutate(matu_daro_data[(midpoint + 1):num_entries, ], district = "daro", crimes = average_crime) # Second half for "daro"
  )
  
  # Print new entries for debugging
  print(new_entries)
  return(new_entries)
}

matu_daro_split <- split_matu_daro(msia_sf_east_dealt)

# A tibble: 28 × 6
   state   district  category type                 date       crimes
   <chr>   <chr>     <chr>    <chr>                <date>      <dbl>
 1 sarawak matu daro assault  causing_injury       2020-01-01      0
 2 sarawak matu daro assault  murder               2020-01-01      0
 3 sarawak matu daro assault  rape                 2020-01-01      1
 4 sarawak matu daro assault  robbery_gang_armed   2020-01-01      0
 5 sarawak matu daro assault  robbery_gang_unarmed 2020-01-01      0
 6 sarawak matu daro assault  robbery_solo_armed   2020-01-01      0
 7 sarawak matu daro assault  robbery_solo_unarmed 2020-01-01      0
 8 sarawak matu daro assault  causing_injury       2021-01-01      0
 9 sarawak matu daro assault  murder               2021-01-01      0
10 sarawak matu daro assault  rape                 2021-01-01      1
# ℹ 18 more rows
[1] 0
# A tibble: 28 × 6
   state   district category type                 date       crimes
   <chr>   <chr>    <chr>    <chr>                <date>      <dbl>
 1 sarawak matu     assault  causing_injury       2020-01-01      0
 2 sarawak matu     assault  murder               2020-01-01      0
 3 sarawak matu     assault  rape                 2020-01-01      0
 4 sarawak matu     assault  robbery_gang_armed   2020-01-01      0
 5 sarawak matu     assault  robbery_gang_unarmed 2020-01-01      0
 6 sarawak matu     assault  robbery_solo_armed   2020-01-01      0
 7 sarawak matu     assault  robbery_solo_unarmed 2020-01-01      0
 8 sarawak matu     assault  causing_injury       2021-01-01      0
 9 sarawak matu     assault  murder               2021-01-01      0
10 sarawak matu     assault  rape                 2021-01-01      0
# ℹ 18 more rows
…
# View the resulting dataset
print(msia_total_crimes)

Simple feature collection with 48 features and 10 fields
Geometry type: MULTIPOLYGON
Dimension:     XY
Bounding box:  xmin: 109.5379 ymin: 0.855001 xmax: 119.2697 ymax: 7.380556
Geodetic CRS:  WGS 84
# A tibble: 48 × 11
   ADM2_EN ADM1_EN                  geometry total_crimes total_crimes_causing…¹
   <chr>   <chr>          <MULTIPOLYGON [°]>        <dbl>                  <dbl>
 1 beaufo… sabah   (((115.58 5.213697, 115.…           39                     15
 2 beluran sabah   (((117.7142 6.260833, 11…           72                     23
 3 kening… sabah   (((116.0938 4.861981, 11…           93                     22
 4 kinaba… sabah   (((119.2474 5.26962, 118…           56                     25
 5 kota b… sabah   (((116.61 6.666111, 116.…           52                     15
 6 kota k… sabah   (((116.3009 5.85547, 116…          405                    153
 7 kota m… sabah   (((116.3408 6.401667, 11…           49                      9
 8 kudat   sabah   (((116.6292 6.688926, 11…           42                     18
 9 kunak   sabah   (((118.1334 4.862195, 11…           27                      8
10 lahad … sabah   (((117.746 4.758972, 117…          116                     32
# ℹ 38 more rows
# ℹ abbreviated name: ¹​total_crimes_causing_injury
# ℹ 6 more variables: total_crimes_murder <dbl>, total_crimes_rape <dbl>,
#   total_crimes_robbery_gang_armed <dbl>,
#   total_crimes_robbery_gang_unarmed <dbl>,
#   total_crimes_robbery_solo_armed <dbl>,
#   total_crimes_robbery_solo_unarmed <dbl>
…
# View the resulting dataset
print(msia_left_join_pivot)

Simple feature collection with 48 features and 30 fields
Geometry type: MULTIPOLYGON
Dimension:     XY
Bounding box:  xmin: 109.5379 ymin: 0.855001 xmax: 119.2697 ymax: 7.380556
Geodetic CRS:  WGS 84
# A tibble: 48 × 31
   ADM1_EN ADM2_EN                               geometry crimes_causing_injur…¹
   <chr>   <chr>                       <MULTIPOLYGON [°]>                  <dbl>
 1 sabah   beaufort      (((115.58 5.213697, 115.5798 5.…                      1
 2 sabah   beluran       (((117.7142 6.260833, 117.7144 …                      5
 3 sabah   keningau      (((116.0938 4.861981, 116.0916 …                      7
 4 sabah   kinabatangan  (((119.2474 5.26962, 118.3465 5…                      7
 5 sabah   kota belud    (((116.61 6.666111, 116.6191 6.…                      9
 6 sabah   kota kinabalu (((116.3009 5.85547, 116.2936 5…                     41
 7 sabah   kota marudu   (((116.3408 6.401667, 116.3408 …                      4
 8 sabah   kudat         (((116.6292 6.688926, 116.6292 …                      4
 9 sabah   kunak         (((118.1334 4.862195, 118.1334 …                      0
10 sabah   lahad datu    (((117.746 4.758972, 117.7419 4…                      6
# ℹ 38 more rows
# ℹ abbreviated name: ¹​crimes_causing_injury_2020
# ℹ 27 more variables: crimes_causing_injury_2021 <dbl>,
#   crimes_causing_injury_2022 <dbl>, crimes_causing_injury_2023 <dbl>,
#   crimes_murder_2020 <dbl>, crimes_murder_2021 <dbl>,
#   crimes_murder_2022 <dbl>, crimes_murder_2023 <dbl>, crimes_rape_2020 <dbl>,
#   crimes_rape_2021 <dbl>, crimes_rape_2022 <dbl>, crimes_rape_2023 <dbl>, …
…
