IS415-GAA - Take-home Exercise 1: Geospatial Analytics for Social Good - Application of Spatial and Spatio-temporal Point Patterns Analysis to discover the geographical distribution of Armed Conflict 
…
myanmar_sf <- read_csv("data/aspatial/2021-01-01-2024-06-30-Myanmar.csv")

Rows: 51553 Columns: 31
── Column specification ────────────────────────────────────────────────────────
Delimiter: ","
chr (20): event_id_cnty, event_date, disorder_type, event_type, sub_event_ty...
dbl (11): year, time_precision, inter1, inter2, interaction, iso, latitude, ...

ℹ Use `spec()` to retrieve the full column specification for this data.
ℹ Specify the column types or set `show_col_types = FALSE` to quiet this message.

list(myanmar_sf)

[[1]]
# A tibble: 51,553 × 31
   event_id_cnty event_date    year time_precision disorder_type      event_type
   <chr>         <chr>        <dbl>          <dbl> <chr>              <chr>     
 1 MMR64313      30 June 2024  2024              1 Political violence Battles   
 2 MMR64320      30 June 2024  2024              1 Political violence Battles   
 3 MMR64321      30 June 2024  2024              1 Political violence Battles   
 4 MMR64322      30 June 2024  2024              1 Strategic develop… Strategic…
 5 MMR64323      30 June 2024  2024              1 Political violence Battles   
 6 MMR64324      30 June 2024  2024              1 Strategic develop… Strategic…
 7 MMR64325      30 June 2024  2024              1 Political violence Battles   
 8 MMR64326      30 June 2024  2024              1 Political violence Battles   
 9 MMR64328      30 June 2024  2024              1 Political violence Battles   
10 MMR64330      30 June 2024  2024              1 Political violence Battles   
# ℹ 51,543 more rows
# ℹ 25 more variables: sub_event_type <chr>, actor1 <chr>, assoc_actor_1 <chr>,
#   inter1 <dbl>, actor2 <chr>, assoc_actor_2 <chr>, inter2 <dbl>,
#   interaction <dbl>, civilian_targeting <chr>, iso <dbl>, region <chr>,
#   country <chr>, admin1 <chr>, admin2 <chr>, admin3 <chr>, location <chr>,
#   latitude <dbl>, longitude <dbl>, geo_precision <dbl>, source <chr>,
#   source_scale <chr>, notes <chr>, fatalities <dbl>, tags <chr>, …
…
myanmar_sf <- myanmar_sf %>%
  select(event_id_cnty, year, time_precision, sub_event_type,
     admin1, geo_precision, timestamp, longitude, latitude) %>%
  st_as_sf(coords = c("longitude", "latitude"),
           crs = 4326) %>%
  st_transform(crs=32646)

  myanmar_sf

Simple feature collection with 51553 features and 7 fields
Geometry type: POINT
Dimension:     XY
Bounding box:  xmin: 415262.5 ymin: 1108594 xmax: 1265315 ymax: 3051664
Projected CRS: WGS 84 / UTM zone 46N
# A tibble: 51,553 × 8
   event_id_cnty  year time_precision sub_event_type        admin1 geo_precision
 * <chr>         <dbl>          <dbl> <chr>                 <chr>          <dbl>
 1 MMR64313       2024              1 Armed clash           Manda…             2
 2 MMR64320       2024              1 Armed clash           Manda…             1
 3 MMR64321       2024              1 Armed clash           Manda…             2
 4 MMR64322       2024              1 Change to group/acti… Sagai…             2
 5 MMR64323       2024              1 Armed clash           Sagai…             2
 6 MMR64324       2024              1 Change to group/acti… Sagai…             2
 7 MMR64325       2024              1 Armed clash           Shan-…             1
 8 MMR64326       2024              1 Armed clash           Shan-…             1
 9 MMR64328       2024              1 Armed clash           Shan-…             2
10 MMR64330       2024              1 Armed clash           Shan-…             1
# ℹ 51,543 more rows
# ℹ 2 more variables: timestamp <dbl>, geometry <POINT [m]>
…
[1] "double"

4.1 Timestamp

noticing that timestamp is a double in myanmar_sf, we need to change it into datetime format, so as to derive meaningful temporal insights. Use as_datetime() function (lubridate package).

myanmar_sf$timestamp <- as_datetime(myanmar_sf$timestamp)
myanmar_sf

Simple feature collection with 51553 features and 7 fields
Geometry type: POINT
Dimension:     XY
Bounding box:  xmin: 415262.5 ymin: 1108594 xmax: 1265315 ymax: 3051664
Projected CRS: WGS 84 / UTM zone 46N
# A tibble: 51,553 × 8
   event_id_cnty  year time_precision sub_event_type        admin1 geo_precision
 * <chr>         <dbl>          <dbl> <chr>                 <chr>          <dbl>
 1 MMR64313       2024              1 Armed clash           Manda…             2
 2 MMR64320       2024              1 Armed clash           Manda…             1
 3 MMR64321       2024              1 Armed clash           Manda…             2
 4 MMR64322       2024              1 Change to group/acti… Sagai…             2
 5 MMR64323       2024              1 Armed clash           Sagai…             2
 6 MMR64324       2024              1 Change to group/acti… Sagai…             2
 7 MMR64325       2024              1 Armed clash           Shan-…             1
 8 MMR64326       2024              1 Armed clash           Shan-…             1
 9 MMR64328       2024              1 Armed clash           Shan-…             2
10 MMR64330       2024              1 Armed clash           Shan-…             1
# ℹ 51,543 more rows
# ℹ 2 more variables: timestamp <dttm>, geometry <POINT [m]>
…
# Define non-violent event types to exclude
non_violent_events <- c("Peaceful Protest", "Change to group/activity", "Other", "Non-violent transfer of territory", "Agreement" )

# Filter the dataset to include only violent/negative events and exclude non-violent ones
violent_sf <- myanmar_sf %>%
  filter(!(sub_event_type %in% non_violent_events))

violent_sf

Simple feature collection with 48694 features and 9 fields
Geometry type: POINT
Dimension:     XY
Bounding box:  xmin: 415262.5 ymin: 1108594 xmax: 1265315 ymax: 3051664
Projected CRS: WGS 84 / UTM zone 46N
# A tibble: 48,694 × 10
# Groups:   event_id_cnty [48,694]
   event_id_cnty  year time_precision sub_event_type        admin1 geo_precision
 * <chr>         <dbl>          <dbl> <chr>                 <chr>          <dbl>
 1 MMR10965       2021              1 Peaceful protest      Manda…             1
 2 MMR10952       2021              1 Abduction/forced dis… Sagai…             1
 3 MMR10966       2021              1 Peaceful protest      Nay P…             2
 4 MMR10970       2021              1 Attack                Rakhi…             2
 5 MMR11051       2021              1 Peaceful protest      Tanin…             1
 6 MMR11052       2021              1 Peaceful protest      Nay P…             1
 7 MMR11041       2021              1 Peaceful protest      Ayeya…             1
 8 MMR11035       2021              1 Peaceful protest      Nay P…             1
 9 MMR10993       2021              1 Peaceful protest      Kayin              1
10 MMR11103       2021              1 Remote explosive/lan… Rakhi…             2
# ℹ 48,684 more rows
# ℹ 4 more variables: timestamp <dttm>, geometry <POINT [m]>, Quarter <dbl>,
#   Year <dbl>
…
