IS415-GAA - In-class Exercise 6:
…
hunan2012_sf <- read_csv("data/aspatial/Hunan_2012.csv")

Rows: 88 Columns: 29
── Column specification ────────────────────────────────────────────────────────
Delimiter: ","
chr  (2): County, City
dbl (27): avg_wage, deposite, FAI, Gov_Rev, Gov_Exp, GDP, GDPPC, GIO, Loan, ...

ℹ Use `spec()` to retrieve the full column specification for this data.
ℹ Specify the column types or set `show_col_types = FALSE` to quiet this message.

hunan2012_sf

# A tibble: 88 × 29
   County    City   avg_wage deposite    FAI Gov_Rev Gov_Exp    GDP GDPPC    GIO
   <chr>     <chr>     <dbl>    <dbl>  <dbl>   <dbl>   <dbl>  <dbl> <dbl>  <dbl>
 1 Anhua     Yiyang    30544   10967   6832.    457.   2703  13225  14567  9277.
 2 Anren     Chenz…    28058    4599.  6386.    221.   1455.  4941. 12761  4189.
 3 Anxiang   Chang…    31935    5517.  3541     244.   1780. 12482  23667  5109.
 4 Baojing   Hunan…    30843    2250   1005.    193.   1379.  4088. 14563  3624.
 5 Chaling   Zhuzh…    31251    8241.  6508.    620.   1947  11585  20078  9158.
 6 Changning Hengy…    28518   10860   7920     770.   2632. 19886  24418 37392 
 7 Changsha  Chang…    54540   24332  33624    5350    7886. 88009  88656 51361 
 8 Chengbu   Shaoy…    28597    2581.  1922.    161.   1192.  2570. 10132  1681.
 9 Chenxi    Huaih…    33580    4990   5818.    460.   1724.  7755. 17026  6644.
10 Cili      Zhang…    33099    8117.  4498.    500.   2306. 11378  18714  5843.
# ℹ 78 more rows
# ℹ 19 more variables: Loan <dbl>, NIPCR <dbl>, Bed <dbl>, Emp <dbl>,
#   EmpR <dbl>, EmpRT <dbl>, Pri_Stu <dbl>, Sec_Stu <dbl>, Household <dbl>,
#   Household_R <dbl>, NOIP <dbl>, Pop_R <dbl>, RSCG <dbl>, Pop_T <dbl>,
#   Agri <dbl>, Service <dbl>, Disp_Inc <dbl>, RORP <dbl>, ROREmp <dbl>
…
HCSA <- wm_idw %>%
  mutate(local_Gi = local_gstar_perm(
    GDPPC, nb, wt, nsim=99),
    .before = 1) %>%
  unnest(local_Gi)
HCSA

Simple feature collection with 88 features and 13 fields
Geometry type: POLYGON
Dimension:     XY
Bounding box:  xmin: 108.7831 ymin: 24.6342 xmax: 114.2544 ymax: 30.12812
Geodetic CRS:  WGS 84
# A tibble: 88 × 14
   gi_star cluster   e_gi     var_gi std_dev p_value p_sim p_folded_sim skewness
     <dbl> <fct>    <dbl>      <dbl>   <dbl>   <dbl> <dbl>        <dbl>    <dbl>
 1  0.0416 Low     0.0114 0.00000641  0.0493 9.61e-1  0.7          0.35    0.875
 2 -0.333  Low     0.0106 0.00000384 -0.0941 9.25e-1  1            0.5     0.661
 3  0.281  High    0.0126 0.00000751 -0.151  8.80e-1  0.9          0.45    0.640
 4  0.411  High    0.0118 0.00000922  0.264  7.92e-1  0.6          0.3     0.853
 5  0.387  High    0.0115 0.00000956  0.339  7.34e-1  0.62         0.31    1.07 
 6 -0.368  High    0.0118 0.00000591 -0.583  5.60e-1  0.72         0.36    0.594
 7  3.56   High    0.0151 0.00000731  2.61   9.01e-3  0.06         0.03    1.09 
 8  2.52   High    0.0136 0.00000614  1.49   1.35e-1  0.2          0.1     1.12 
 9  4.56   High    0.0144 0.00000584  3.53   4.17e-4  0.04         0.02    1.23 
10  1.16   Low     0.0104 0.00000370  1.82   6.86e-2  0.12         0.06    0.416
# ℹ 78 more rows
# ℹ 5 more variables: kurtosis <dbl>, nb <nb>, wts <list>, GDPPC <dbl>,
#   geometry <POLYGON [°]>
…
