IS415-GAA - Hands-on-Exercise 2: Thematic Mapping and GeoVisualisation with R
…
popdata <- read_csv("data/aspatial/respopagesextod2011to2020.csv")

Rows: 984656 Columns: 7
── Column specification ────────────────────────────────────────────────────────
Delimiter: ","
chr (5): PA, SZ, AG, Sex, TOD
dbl (2): Pop, Time

ℹ Use `spec()` to retrieve the full column specification for this data.
ℹ Specify the column types or set `show_col_types = FALSE` to quiet this message.

popdata

# A tibble: 984,656 × 7
   PA         SZ                     AG     Sex     TOD                Pop  Time
   <chr>      <chr>                  <chr>  <chr>   <chr>            <dbl> <dbl>
 1 Ang Mo Kio Ang Mo Kio Town Centre 0_to_4 Males   HDB 1- and 2-Ro…     0  2011
 2 Ang Mo Kio Ang Mo Kio Town Centre 0_to_4 Males   HDB 3-Room Flats    10  2011
 3 Ang Mo Kio Ang Mo Kio Town Centre 0_to_4 Males   HDB 4-Room Flats    30  2011
 4 Ang Mo Kio Ang Mo Kio Town Centre 0_to_4 Males   HDB 5-Room and …    50  2011
 5 Ang Mo Kio Ang Mo Kio Town Centre 0_to_4 Males   HUDC Flats (exc…     0  2011
 6 Ang Mo Kio Ang Mo Kio Town Centre 0_to_4 Males   Landed Properti…     0  2011
 7 Ang Mo Kio Ang Mo Kio Town Centre 0_to_4 Males   Condominiums an…    40  2011
 8 Ang Mo Kio Ang Mo Kio Town Centre 0_to_4 Males   Others               0  2011
 9 Ang Mo Kio Ang Mo Kio Town Centre 0_to_4 Females HDB 1- and 2-Ro…     0  2011
10 Ang Mo Kio Ang Mo Kio Town Centre 0_to_4 Females HDB 3-Room Flats    10  2011
# ℹ 984,646 more rows
…
`summarise()` has grouped output by 'PA', 'SZ'. You can override using the
`.groups` argument.

popdata2020

# A tibble: 332 × 7
   PA         SZ                   YOUNG `ECONOMY ACTIVE`  AGED TOTAL DEPENDENCY
   <chr>      <chr>                <dbl>            <dbl> <dbl> <dbl>      <dbl>
 1 Ang Mo Kio Ang Mo Kio Town Cen…  1440             2610   760  4810      0.843
 2 Ang Mo Kio Cheng San             6640            15460  6050 28150      0.821
 3 Ang Mo Kio Chong Boon            6150            13950  6470 26570      0.905
 4 Ang Mo Kio Kebun Bahru           5540            12090  5120 22750      0.882
 5 Ang Mo Kio Sembawang Hills       2100             3410  1310  6820      1    
 6 Ang Mo Kio Shangri-La            3960             8420  3610 15990      0.899
 7 Ang Mo Kio Tagore                2220             4200  1530  7950      0.893
 8 Ang Mo Kio Townsville            4690            11450  5100 21240      0.855
 9 Ang Mo Kio Yio Chu Kang             0                0     0     0    NaN    
10 Ang Mo Kio Yio Chu Kang East     1220             2300   750  4270      0.857
# ℹ 322 more rows
…
