IS415-GAA - Hands-on-Exercise 5: Spatial Weights and Applications
…
hunan2012_sf <- read_csv("data/aspatial/Hunan_2012.csv")

Rows: 88 Columns: 29
── Column specification ────────────────────────────────────────────────────────
Delimiter: ","
chr  (2): County, City
dbl (27): avg_wage, deposite, FAI, Gov_Rev, Gov_Exp, GDP, GDPPC, GIO, Loan, ...

ℹ Use `spec()` to retrieve the full column specification for this data.
ℹ Specify the column types or set `show_col_types = FALSE` to quiet this message.

hunan2012_sf

# A tibble: 88 × 29
   County    City   avg_wage deposite    FAI Gov_Rev Gov_Exp    GDP GDPPC    GIO
   <chr>     <chr>     <dbl>    <dbl>  <dbl>   <dbl>   <dbl>  <dbl> <dbl>  <dbl>
 1 Anhua     Yiyang    30544   10967   6832.    457.   2703  13225  14567  9277.
 2 Anren     Chenz…    28058    4599.  6386.    221.   1455.  4941. 12761  4189.
 3 Anxiang   Chang…    31935    5517.  3541     244.   1780. 12482  23667  5109.
 4 Baojing   Hunan…    30843    2250   1005.    193.   1379.  4088. 14563  3624.
 5 Chaling   Zhuzh…    31251    8241.  6508.    620.   1947  11585  20078  9158.
 6 Changning Hengy…    28518   10860   7920     770.   2632. 19886  24418 37392 
 7 Changsha  Chang…    54540   24332  33624    5350    7886. 88009  88656 51361 
 8 Chengbu   Shaoy…    28597    2581.  1922.    161.   1192.  2570. 10132  1681.
 9 Chenxi    Huaih…    33580    4990   5818.    460.   1724.  7755. 17026  6644.
10 Cili      Zhang…    33099    8117.  4498.    500.   2306. 11378  18714  5843.
# ℹ 78 more rows
# ℹ 19 more variables: Loan <dbl>, NIPCR <dbl>, Bed <dbl>, Emp <dbl>,
#   EmpR <dbl>, EmpRT <dbl>, Pri_Stu <dbl>, Sec_Stu <dbl>, Household <dbl>,
#   Household_R <dbl>, NOIP <dbl>, Pop_R <dbl>, RSCG <dbl>, Pop_T <dbl>,
#   Agri <dbl>, Service <dbl>, Disp_Inc <dbl>, RORP <dbl>, ROREmp <dbl>
…
